^C:\USERS\PHANQ\16521385_CG\COMPUTER GRAPHIC\CIRCLE.CPP
/c /I"C:\USERS\PHANQ\DOWNLOADS\SDL2-2.0.8\INCLUDE" /ZI /nologo /W3 /WX- /diagnostics:classic /sdl /Od /D _MBCS /Gm- /EHsc /RTC1 /MDd /GS /fp:precise /permissive- /Zc:wchar_t /Zc:forScope /Zc:inline /Fo"X64\DEBUG\\" /Fd"X64\DEBUG\VC141.PDB" /Gd /TP /FC C:\USERS\PHANQ\16521385_CG\COMPUTER GRAPHIC\CIRCLE.CPP
^C:\USERS\PHANQ\16521385_CG\COMPUTER GRAPHIC\CLIPPING.CPP
/c /I"C:\USERS\PHANQ\DOWNLOADS\SDL2-2.0.8\INCLUDE" /ZI /nologo /W3 /WX- /diagnostics:classic /sdl /Od /D _MBCS /Gm- /EHsc /RTC1 /MDd /GS /fp:precise /permissive- /Zc:wchar_t /Zc:forScope /Zc:inline /Fo"X64\DEBUG\\" /Fd"X64\DEBUG\VC141.PDB" /Gd /TP /FC C:\USERS\PHANQ\16521385_CG\COMPUTER GRAPHIC\CLIPPING.CPP
^C:\USERS\PHANQ\16521385_CG\COMPUTER GRAPHIC\DRAWPOLYGON.CPP
/c /I"C:\USERS\PHANQ\DOWNLOADS\SDL2-2.0.8\INCLUDE" /ZI /nologo /W3 /WX- /diagnostics:classic /sdl /Od /D _MBCS /Gm- /EHsc /RTC1 /MDd /GS /fp:precise /permissive- /Zc:wchar_t /Zc:forScope /Zc:inline /Fo"X64\DEBUG\\" /Fd"X64\DEBUG\VC141.PDB" /Gd /TP /FC C:\USERS\PHANQ\16521385_CG\COMPUTER GRAPHIC\DRAWPOLYGON.CPP
^C:\USERS\PHANQ\16521385_CG\COMPUTER GRAPHIC\ELLIPSE.CPP
/c /I"C:\USERS\PHANQ\DOWNLOADS\SDL2-2.0.8\INCLUDE" /ZI /nologo /W3 /WX- /diagnostics:classic /sdl /Od /D _MBCS /Gm- /EHsc /RTC1 /MDd /GS /fp:precise /permissive- /Zc:wchar_t /Zc:forScope /Zc:inline /Fo"X64\DEBUG\\" /Fd"X64\DEBUG\VC141.PDB" /Gd /TP /FC C:\USERS\PHANQ\16521385_CG\COMPUTER GRAPHIC\ELLIPSE.CPP
^C:\USERS\PHANQ\16521385_CG\COMPUTER GRAPHIC\LINE.CPP
/c /I"C:\USERS\PHANQ\DOWNLOADS\SDL2-2.0.8\INCLUDE" /ZI /nologo /W3 /WX- /diagnostics:classic /sdl /Od /D _MBCS /Gm- /EHsc /RTC1 /MDd /GS /fp:precise /permissive- /Zc:wchar_t /Zc:forScope /Zc:inline /Fo"X64\DEBUG\\" /Fd"X64\DEBUG\VC141.PDB" /Gd /TP /FC C:\USERS\PHANQ\16521385_CG\COMPUTER GRAPHIC\LINE.CPP
^C:\USERS\PHANQ\16521385_CG\COMPUTER GRAPHIC\MAIN.CPP
/c /I"C:\USERS\PHANQ\DOWNLOADS\SDL2-2.0.8\INCLUDE" /ZI /nologo /W3 /WX- /diagnostics:classic /sdl /Od /D _MBCS /Gm- /EHsc /RTC1 /MDd /GS /fp:precise /permissive- /Zc:wchar_t /Zc:forScope /Zc:inline /Fo"X64\DEBUG\\" /Fd"X64\DEBUG\VC141.PDB" /Gd /TP /FC C:\USERS\PHANQ\16521385_CG\COMPUTER GRAPHIC\MAIN.CPP
^C:\USERS\PHANQ\16521385_CG\COMPUTER GRAPHIC\PARAPOL.CPP
/c /I"C:\USERS\PHANQ\DOWNLOADS\SDL2-2.0.8\INCLUDE" /ZI /nologo /W3 /WX- /diagnostics:classic /sdl /Od /D _MBCS /Gm- /EHsc /RTC1 /MDd /GS /fp:precise /permissive- /Zc:wchar_t /Zc:forScope /Zc:inline /Fo"X64\DEBUG\\" /Fd"X64\DEBUG\VC141.PDB" /Gd /TP /FC C:\USERS\PHANQ\16521385_CG\COMPUTER GRAPHIC\PARAPOL.CPP
